{
    "type": "service_account",
    "project_id": "tribe-abdi",
    "private_key_id": "ea109daa09c72233048abd717e679bc8d7513550",
    "private_key": "-----BEGIN PRIVATE KEY-----\nMIIEvQIBADANBgkqhkiG9w0BAQEFAASCBKcwggSjAgEAAoIBAQCL6altUjsI9jp0\ne7TevGFKkGbZwd67v9flLyMqLrtcKsGXHlKs0L/YfgI2pqMCegdsSyYc+ReHcPvE\ncG42RSXdggcKi8tWG7Osi47hzAHIM8Hb/OHVHzSIqNjZW8w1tnlF7hItXxaXiLOu\nUk1DWcimOxbZrzMuGl0r5z3MfwPyftzCRsX2tYnZQGaWc1tl2XBQqmdx3QLgj9iS\n1pOwUh7wdPhZ1Vma8Dl+fvSIdo6Em6jbATG5O4hVsFJaIGViaYWkps7LRwH4DoEY\nr1QCz5e4EOQ9g9Y1LN2P+r07S0yThr1YPwnYugdw4JTTGDZo/YzfXJ/0SrfPrTQa\nRrVRPzAxAgMBAAECggEAQKMpb+TuexxuMwQ3sjMra2w859smEGz3y9y0DTfbvR/P\nogYTQd2K0/SbBy6C3pELvt8U84uscBklZ0Jd2FqnvKbmo9uji9tubYdn8i7yn9Ax\nfnVcy74H4h7HV9uOAz6S1li/MxDb+hPgludU5ImlJg7kZpsHNQRfCPpi1YfUhgGh\nEvcLMnH7aqppr5L/QePNlLZdw0QvcZ/6nIZV0jskUquUFlsuTWQUa6bwjnmlJurK\nFv4IB6nU/cl20GCkAo1Idvu/EMJuEJxKDu+qvrmSSYsWGHrsb+uQ5U23wACJ5AP9\nxQ+RMUkehGENiMCLozLn1WTNTmzdQKyDzdj4F6dU9QKBgQC9tPevnRxFSiF2wfHI\nhsBS8UDRuGjWbIgoFdkMgmGoHxw9+q8tsGEzBBkejYPONYsS6XQdaFjymbJsVoMK\neDfypR6xeL2bVy4ams2N230MrudHNA1ea+qpZRF/JOqioTRWOPI9E+LeC+5RwGFq\nkmqNGJT8Ol7rlchw6/q4+uterwKBgQC8ziWp4boXoXqJxnKeJtlVLE8s0IuqMWyi\ngec+2Sz09Hh4m3D6Z+VyuYNm82ELeKxzMbvlXdB6BW4rvNCdugetoUdywjFXP3o2\nfUIxLVCFrsF27J8nxFIZ6kYdXAVqYjhHIrRiFxC1uwZI6Kx+k354L3NcKt1zr8Dk\nIur+8dMXHwKBgAj1fej+O3KOQKxSFnAI5RZFrHD7C4Bs2bVC6uArXB9LcNMAfrti\npAR7wg/uUPYxEyNOgRxObDzwwztYjpG1Abdk0uFAuXuXj2bUPrbfUbWCoQt8ytDV\nudxMGJpvjOEnSch0ogP+Z21jFNspgbA9v+hv68FJpGftx+yFSG7p8qmjAoGBALP+\nGy3fQddxXC6of3CCPMLUIQ7qKZuwzo4GJXxm8lL8FTV1irlN/xHmBX1KHIQhINYY\n3bYGP890CdmsgX08ckF29XRT6VHx9AKqW0Yimxc2yL0lS31Pza1jCEDJD2iiBmDa\nlvjEYGu/xngPSRLKbdEJ+4IsYz38mXlkSH+P7tulAoGATT619rAElB3BnUiNLvGz\na43ygIi/lX6rXfl9GORhQlsPhEZ3Ko3EPf5F8IVwHsToRvs5vPhx0Yswc21mHVwi\nKlYx8bQtqfi82NNLzBgxbDjMbmVYj2ladZ7zCfM70Plq2NPX/x0ZNSg1xLjn0SSj\ndZ9DSsi7D0wjk+fYs2UFEik=\n-----END PRIVATE KEY-----\n",
    "client_email": "firebase-adminsdk-6r37r@tribe-abdi.iam.gserviceaccount.com",
    "client_id": "106622072779574996040",
    "auth_uri": "https://accounts.google.com/o/oauth2/auth",
    "token_uri": "https://oauth2.googleapis.com/token",
    "auth_provider_x509_cert_url": "https://www.googleapis.com/oauth2/v1/certs",
    "client_x509_cert_url": "https://www.googleapis.com/robot/v1/metadata/x509/firebase-adminsdk-6r37r%40tribe-abdi.iam.gserviceaccount.com"
}
